{"message":"操作成功","data":{"pageNo":1,"totalCount":420,"count":true,"firstResult":0,"next":2,"pageCount":21,"maxResults":20,"results":[{"thumbnail":"\/store\/preview\/2016\/0823\/23145210d83z.jpg","liveId":0,"applyStatus":0,"source":0,"status":0,"title":"华夏幸福&太库创新培训","visits":16,"region":{"id":3105,"cityName":"廊坊","countryName":"中国","regionCode":"13","countryCode":"1","cityCode":"10","fullName":"中国-河北-廊坊","city":true,"region":false,"country":true,"name":"廊坊","regionName":"河北"},"liveStatus":0,"applicants":2,"organizer":"太库生物","city":"廊坊","endTime":"2016-08-31 15:00","contacter":"陈中伟","type":1,"id":4893,"sourceUrl":"","email":"andrew.chen@techcode.com","audit":2,"liveUrl":"","dimensions":100,"startTime":"2016-08-31 13:00","address":"固安创业大厦3层","favoriteStatus":0},{"thumbnail":"","liveId":0,"applyStatus":0,"source":0,"status":0,"title":"天使VC有约丨Betapitch太库国际创业挑战赛—北京区域赛决赛","visits":12,"region":{"id":2165,"cityName":"","countryName":"中国","regionCode":"11","countryCode":"1","cityCode":"","fullName":"中国-北京","city":false,"region":true,"country":false,"name":"北京","regionName":"北京"},"liveStatus":0,"applicants":0,"organizer":"太库北京","city":"北京","endTime":"2016-08-26 17:30","contacter":"","type":1,"id":4892,"sourceUrl":"","email":"","audit":2,"liveUrl":"","dimensions":180,"startTime":"2016-08-26 13:30","address":"北京市海淀区中关村西区鼎好大厦A座3层太库孵化器路演厅","favoriteStatus":0},{"thumbnail":"\/store\/preview\/2016\/0823\/23121659j77k.jpg","liveId":0,"applyStatus":0,"source":0,"status":0,"title":"库咖说 | 从王宝强婚变，看离婚资产分割如何保全个人资产？","visits":71,"region":null,"liveStatus":0,"applicants":0,"organizer":"太库科技","city":"北京","endTime":"2016-08-23 22:00","contacter":"任玉娟","type":1,"id":4885,"sourceUrl":"","email":"","audit":2,"liveUrl":"","dimensions":100,"startTime":"2016-08-23 20:00","address":"线上直播","favoriteStatus":0},{"thumbnail":"\/store\/preview\/2016\/0819\/19204515k9wh.jpg","liveId":0,"applyStatus":0,"source":0,"status":0,"title":"天使VC有约丨Betapitch太库国际创业挑战赛—南京区域赛决赛","visits":74,"region":{"id":3858,"cityName":"南京","countryName":"中国","regionCode":"32","countryCode":"1","cityCode":"1","fullName":"中国-江苏-南京","city":true,"region":false,"country":true,"name":"南京","regionName":"江苏"},"liveStatus":0,"applicants":14,"organizer":"太库南京","city":"南京","endTime":"2016-08-24 17:30","contacter":"蒋晓玉","type":3,"id":4866,"sourceUrl":"","email":"Joanne.jiang@techcode.com","audit":2,"liveUrl":"","dimensions":50,"startTime":"2016-08-24 13:30","address":"江苏省南京市玄武区珠江路488号未来城A座2层，太库南京","favoriteStatus":0},{"thumbnail":"\/store\/preview\/2016\/0822\/221134374lzf.jpg","liveId":0,"applyStatus":0,"source":0,"status":0,"title":"天使VC有约 | Betapitch太库国际创业挑战赛——上海区域赛决赛","visits":17,"region":{"id":2206,"cityName":"","countryName":"中国","regionCode":"31","countryCode":"1","cityCode":"","fullName":"中国-上海","city":false,"region":true,"country":false,"name":"上海","regionName":"上海"},"liveStatus":0,"applicants":4,"organizer":"太库上海，Betahaus","city":"上海","endTime":"2016-08-25 17:30","contacter":"杨娴","type":5,"id":4877,"sourceUrl":"","email":"betapitch@163.com","audit":2,"liveUrl":"","dimensions":50,"startTime":"2016-08-25 13:00","address":"上海市浦东新区金科路2889弄长泰广场C座12层","favoriteStatus":0},{"thumbnail":"\/store\/preview\/2016\/0819\/19172811jq5l.jpg","liveId":0,"applyStatus":0,"source":0,"status":0,"title":"创新女神|太库创新女神专场","visits":69,"region":null,"liveStatus":0,"applicants":4,"organizer":"太库上海","city":"上海","endTime":"2016-08-26 22:00","contacter":"王可可","type":5,"id":4864,"sourceUrl":"","email":"","audit":2,"liveUrl":"http:\/\/v.qq.com\/x\/page\/r0321j88pkv.html","dimensions":150,"startTime":"2016-08-26 17:30","address":"上海浦东新区金科路2889弄长泰广场C座12楼","favoriteStatus":0},{"thumbnail":"\/store\/preview\/2016\/0819\/191436005enl.jpg","liveId":0,"applyStatus":0,"source":0,"status":0,"title":"【华夏幸福承办】印度尼西亚投资峰会","visits":31,"region":null,"liveStatus":0,"applicants":12,"organizer":"印度尼西亚驻中国大使馆、印度尼西亚投资协调委员会等","city":"上海","endTime":"2016-09-03 13:30","contacter":"高远","type":2,"id":4859,"sourceUrl":"","email":"","audit":2,"liveUrl":"","dimensions":150,"startTime":"2016-09-03 08:30","address":"上海浦东嘉里大酒店","favoriteStatus":0},{"thumbnail":"\/store\/preview\/2016\/0816\/16135940y9as.jpg","liveId":0,"applyStatus":0,"source":0,"status":0,"title":"库咖说|你的BP，真的能打动投资人吗？ ——BP设计培训 ","visits":42,"region":null,"liveStatus":0,"applicants":0,"organizer":"太库嘉善 八位空间","city":"嘉善","endTime":"2016-08-25 16:30","contacter":"潘丽","type":1,"id":4822,"sourceUrl":"","email":"lily.pan@techcode.com","audit":2,"liveUrl":"","dimensions":20,"startTime":"2016-08-25 13:00","address":"嘉善县大云镇创业路555号（上海人才创业园）E5","favoriteStatus":0},{"thumbnail":"\/store\/preview\/2016\/0818\/181834560i9w.jpg","liveId":0,"applyStatus":0,"source":0,"status":0,"title":"库趴 | 别再为宝宝的事揪心了 跟大佬们一起去惠州徒步露营","visits":34,"region":null,"liveStatus":0,"applicants":0,"organizer":"太库孵化器","city":"深圳","endTime":"2016-09-04 17:00","contacter":"张冰","type":5,"id":4851,"sourceUrl":"","email":"janice.zhang@techcode.com","audit":2,"liveUrl":"","dimensions":20,"startTime":"2016-09-03 14:00","address":"深圳市南山区怡化金融大厦18F太库孵化器","favoriteStatus":0},{"thumbnail":"\/store\/preview\/2016\/0816\/16160358p3gd.jpg","liveId":0,"applyStatus":0,"source":0,"status":0,"title":"太库探索者－以色列特拉维夫站（9月25日-10月1日）","visits":97,"region":null,"liveStatus":0,"applicants":0,"organizer":"太库科技","city":"特拉维夫","endTime":"2016-10-01 00:00","contacter":"沙慕宸","type":5,"id":4825,"sourceUrl":"","email":"muchen.sha@techcode.com","audit":2,"liveUrl":"","dimensions":150,"startTime":"2016-09-25 00:00","address":"太库孵化器.以色列","favoriteStatus":0},{"thumbnail":"\/store\/preview\/2016\/0815\/15095847qdng.jpg","liveId":0,"applyStatus":0,"source":0,"status":0,"title":"感觉身体被掏空， 最好的拯救方式就是参与一场活动","visits":59,"region":{"id":2165,"cityName":"","countryName":"中国","regionCode":"11","countryCode":"1","cityCode":"","fullName":"中国-北京","city":false,"region":true,"country":false,"name":"北京","regionName":"北京"},"liveStatus":0,"applicants":0,"organizer":"太库北京","city":"北京","endTime":"2016-08-27 18:30","contacter":"","type":4,"id":4766,"sourceUrl":"","email":"","audit":2,"liveUrl":"","dimensions":100,"startTime":"2016-08-27 14:00","address":"北京市海淀区中关村西区鼎好大厦A座三层太库孵化器","favoriteStatus":0},{"thumbnail":"\/store\/preview\/2016\/0802\/021538398grv.jpg","liveId":0,"applyStatus":0,"source":0,"status":0,"title":"【太库生物】科研服务经销商主题沙龙","visits":131,"region":null,"liveStatus":0,"applicants":7,"organizer":"太库科技创业发展有限公司","city":"北京","endTime":"2017-07-13 17:00","contacter":"陈中伟","type":4,"id":4687,"sourceUrl":"","email":"","audit":2,"liveUrl":"","dimensions":200,"startTime":"2016-08-13 13:30","address":"北京市，海淀区，中关村，鼎好A座3层太库大会议室","favoriteStatus":0},{"thumbnail":"\/store\/preview\/2016\/0715\/15152004e9ho.jpg","liveId":0,"applyStatus":0,"source":0,"status":0,"title":"【太库北京】2016 Betapitch太库国际创业挑战赛招募令","visits":218,"region":{"id":2165,"cityName":"","countryName":"中国","regionCode":"11","countryCode":"1","cityCode":"","fullName":"中国-北京","city":false,"region":true,"country":false,"name":"北京","regionName":"北京"},"liveStatus":0,"applicants":11,"organizer":"太库北京","city":"北京","endTime":"2016-08-26 00:00","contacter":"王荣荣","type":5,"id":4546,"sourceUrl":"","email":"renee.wang@techcode.com","audit":2,"liveUrl":"","dimensions":100,"startTime":"2016-08-15 00:00","address":"北京市海淀区中关村西区鼎好大厦A座3层太库孵化器路演厅","favoriteStatus":0},{"thumbnail":"\/store\/preview\/2016\/0715\/151427016hsh.jpg","liveId":0,"applyStatus":0,"source":0,"status":0,"title":"【太库南京】2016 Betapitch太库国际创业挑战赛招募令","visits":200,"region":null,"liveStatus":0,"applicants":33,"organizer":"太库（南京）孵化器","city":"南京","endTime":"2016-09-09 23:55","contacter":"蒋晓玉","type":5,"id":4539,"sourceUrl":"","email":"Joanne.jiang@techcode.com","audit":2,"liveUrl":"","dimensions":100,"startTime":"2016-08-15 00:00","address":"江苏省南京市玄武区珠江路488号未来城A座2层","favoriteStatus":0},{"thumbnail":"\/store\/preview\/2016\/0715\/15141924a7zf.jpg","liveId":0,"applyStatus":0,"source":0,"status":0,"title":"【太库嘉善】Betapitch 太库国际创业大赛招募令","visits":90,"region":null,"liveStatus":0,"applicants":4,"organizer":"太库科技","city":"嘉善","endTime":"2016-10-15 00:00","contacter":"潘丽","type":5,"id":4540,"sourceUrl":"","email":"lily.pan@techcode.com","audit":2,"liveUrl":"","dimensions":100,"startTime":"2016-08-15 00:00","address":"太库（嘉善）孵化器","favoriteStatus":0},{"thumbnail":"\/store\/spider\/activity\/1\/8.jpg","liveId":0,"applyStatus":0,"source":1,"status":0,"title":"第二届汇桔杯南粤知识产权创新创业大赛报名啦！","visits":11,"region":null,"liveStatus":0,"applicants":0,"organizer":"广州博鳌纵横网络科技有限公司（汇桔网）","city":"广州","endTime":"2016-08-31 23:50","contacter":"","type":2,"id":4801,"sourceUrl":"http:\/\/www.huodongshu.com\/event\/10036145\/?is_easy=2","email":"","audit":2,"liveUrl":"","dimensions":0,"startTime":"2016-08-12 00:00","address":"广州博鳌纵横网络科技有限公司（汇桔网）","favoriteStatus":0},{"thumbnail":"\/store\/spider\/activity\/1\/0.jpg","liveId":0,"applyStatus":0,"source":1,"status":0,"title":"风口之下，直播的格局与陷阱","visits":10,"region":null,"liveStatus":0,"applicants":0,"organizer":"新京报社寻找中国创客","city":"北京","endTime":"2016-08-24 18:00","contacter":"","type":4,"id":4785,"sourceUrl":"http:\/\/www.huodongshu.com\/event\/10035998\/?is_easy=2","email":"","audit":2,"liveUrl":"","dimensions":0,"startTime":"2016-08-24 13:30","address":"北京市朝阳区光华路5号世纪财富中心3层","favoriteStatus":0},{"thumbnail":"\/store\/spider\/activity\/1\/5.jpg","liveId":0,"applyStatus":0,"source":1,"status":0,"title":"活动报名 | 洋葱投第8期创业辅导课—初创企业如何进行股权设置！","visits":9,"region":null,"liveStatus":0,"applicants":0,"organizer":"洋葱投","city":"北京","endTime":"2016-08-24 16:30","contacter":"","type":1,"id":4803,"sourceUrl":"http:\/\/yangconghui.huodongshu.com\/event\/10036108\/?is_easy=2","email":"","audit":2,"liveUrl":"","dimensions":0,"startTime":"2016-08-24 13:30","address":"北京市海淀区中关村创业大街8号楼一层洋葱投","favoriteStatus":0},{"thumbnail":"\/store\/preview\/2016\/0819\/19162947kumy.jpg","liveId":0,"applyStatus":0,"source":0,"status":0,"title":"创享汇∣中以创投南京之旅 2016-新机遇新挑战","visits":21,"region":{"id":3858,"cityName":"南京","countryName":"中国","regionCode":"32","countryCode":"1","cityCode":"1","fullName":"中国-江苏-南京","city":true,"region":false,"country":true,"name":"南京","regionName":"江苏"},"liveStatus":0,"applicants":0,"organizer":"太库以色列&太库南京","city":"南京","endTime":"2016-08-25 12:00","contacter":"蒋晓玉","type":1,"id":4860,"sourceUrl":"","email":"Joanne.jiang@techcode.com","audit":2,"liveUrl":"","dimensions":30,"startTime":"2016-08-25 09:00","address":"玄武区珠江路488号未来城A座2层","favoriteStatus":0},{"thumbnail":"\/store\/preview\/2016\/0706\/06145954a2wl.jpg","liveId":0,"applyStatus":0,"source":0,"status":0,"title":"Startup Weekend Riverton: RootsTech Family History","visits":35,"region":null,"liveStatus":0,"applicants":0,"organizer":"Startup Weekend","city":"犹他","endTime":"2016-08-27 21:00","contacter":"","type":1,"id":4449,"sourceUrl":"","email":"","audit":2,"liveUrl":"","dimensions":0,"startTime":"2016-08-25 18:00","address":"FamilySearch Riverton Office 3740 W Market Center Dr  Riverton, UT 84065","favoriteStatus":0}],"size":20,"prev":0},"code":0}